Loading rules from len7/newInput120 ...
####### : #
######. : #
#####.# : #
#####.. : .
####.## : .
####.#. : #
####..# : #
####... : .
###.### : #
###.##. : .
###.#.# : .
###.#.. : .
###..## : .
###..#. : .
###...# : #
###.... : .
##.#### : .
##.###. : .
##.##.# : #
##.##.. : .
##.#.## : .
##.#.#. : #
##.#..# : #
##.#... : .
##..### : #
##..##. : #
##..#.# : #
##..#.. : #
##...## : #
##...#. : #
##....# : .
##..... : .
#.##### : #
#.####. : #
#.###.# : .
#.###.. : .
#.##.## : #
#.##.#. : #
#.##..# : .
#.##... : .
#.#.### : #
#.#.##. : #
#.#.#.# : .
#.#.#.. : .
#.#..## : #
#.#..#. : #
#.#...# : .
#.#.... : .
#..#### : .
#..###. : .
#..##.# : #
#..##.. : #
#..#.## : #
#..#.#. : .
#..#..# : #
#..#... : .
#...### : #
#...##. : #
#...#.# : .
#...#.. : #
#....## : #
#....#. : #
#.....# : .
#...... : .
.###### : #
.#####. : #
.####.# : #
.####.. : .
.###.## : #
.###.#. : #
.###..# : .
.###... : #
.##.### : .
.##.##. : #
.##.#.# : #
.##.#.. : #
.##..## : .
.##..#. : #
.##...# : #
.##.... : .
.#.#### : .
.#.###. : #
.#.##.# : #
.#.##.. : .
.#.#.## : .
.#.#.#. : #
.#.#..# : .
.#.#... : #
.#..### : #
.#..##. : #
.#..#.# : #
.#..#.. : .
.#...## : #
.#...#. : .
.#....# : .
.#..... : .
..##### : #
..####. : #
..###.# : .
..###.. : #
..##.## : #
..##.#. : #
..##..# : #
..##... : #
..#.### : .
..#.##. : .
..#.#.# : #
..#.#.. : #
..#..## : .
..#..#. : .
..#...# : .
..#.... : .
...#### : #
...###. : .
...##.# : #
...##.. : .
...#.## : #
...#.#. : .
...#..# : #
...#... : .
....### : #
....##. : #
....#.# : #
....#.. : .
.....## : .
.....#. : .
......# : .
....... : .
Setting RULELEN to 7
Part 1: 1557
Stablized at Generation 204
Cycle is of length 120 after which a migration of -120 occurs
Part 2: -1049999998817
